[{
  "title": "Bảo hiểm hàng hóa vận chuyển",
  "ariaExpanded": true,
  "content": "Bồi thường cho những thiệt hại, mất mát của hàng hoá trong quá trình vận chuyển bằng đường biển hoặc đường bộ, nguyên nhân bởi những rủi ro bất ngờ và không lường trước.\nBồi thường cho những thiệt hại, mất mát của hàng hoá trong quá trình vận chuyển bằng đường hàng không, nguyên nhân bởi những rủi ro bất ngờ và không lường trước\nBồi thường cho những thiệt hại, mất mát của thực phẩm đông lạnh trong quá trình vận chuyển.\nBồi thường cho những thiệt hại, mất mát của hàng hoá trong quá trình vận chuyển trên lãnh thổ Việt nam",
  "nextLevel": true,
  "nextLevelContent": [{
      "title": "Bảo hiểm hàng hóa vận chuyển (đường biển, đường bộ)",
      "content": "Yêu cầu tài liệu",
      "ariaExpanded": true,
      "text": [
        "1. Thông báo tổn thất",
        "2. Hợp đồng/ Giấy chứng nhận bảo hiểm",
        "3. Vận đơn, hoá đơn thương mại, phiếu đóng gói, hợp đồng mua bán",
        "4. Biên bản kết toán nhận hàng với tàu, biên bản hàng đổ vỡ, phiếu giao nhận container",
        "5. Biên bản hiện trường và/hoặc Báo cáo giám định",
        "6. Tài liệu chi phí khắc phục tổn thất",
        "7. Đơn yêu cầu bồi thường",
        "8. Các tài liệu khác tuỳ theo từng trường hợp tổn thất"
      ]
    },
    {
      "title": "Bảo hiểm hàng hóa vận chuyển (đường hàng không)",
      "content": "Yêu cầu tài liệu",
      "ariaExpanded": false,
      "text": [
        "1. Thông báo tổn thất",
        "2. Hợp đồng/ Giấy chứng nhận bảo hiểm",
        "3. Vận đơn, hoá đơn thương mại, phiếu đóng gói, hợp đồng mua bán",
        "4. Biên bản kết toán nhận hàng với tàu, biên bản hàng đổ vỡ, phiếu giao nhận container",
        "5. Biên bản hiện trường và/hoặc Báo cáo giám định",
        "6. Tài liệu chi phí khắc phục tổn thất",
        "7. Đơn yêu cầu bồi thường",
        "8. Các tài liệu khác tuỳ theo từng trường hợp tổn thất"
      ]
    },
    {
      "title": "Bảo hiểm thực phẩm đông lạnh",
      "content": "Yêu cầu tài liệu",
      "ariaExpanded": false,
      "text": [
        "1. Thông báo tổn thất",
        "2. Hợp đồng/ Giấy chứng nhận bảo hiểm",
        "3. Vận đơn, hoá đơn thương mại, phiếu đóng gói, hợp đồng mua bán",
        "4. Biên bản kết toán nhận hàng với tàu, biên bản hàng đổ vỡ, phiếu giao nhận container",
        "5. Biên bản hiện trường và/hoặc Báo cáo giám định",
        "6. Tài liệu chi phí khắc phục tổn thất",
        "7. Đơn yêu cầu bồi thường",
        "8. Các tài liệu khác tuỳ theo từng trường hợp tổn thất"
      ]
    },
    {
      "title": "Bảo hiểm hàng hóa vận chuyển nội địa",
      "content": "Yêu cầu tài liệu",
      "ariaExpanded": false,
      "text": [
        "1. Thông báo tổn thất",
        "2. Hợp đồng/ Giấy chứng nhận bảo hiểm",
        "3. Vận đơn, hoá đơn thương mại, phiếu đóng gói, hợp đồng mua bán",
        "4. Biên bản kết toán nhận hàng với tàu, biên bản hàng đổ vỡ, phiếu giao nhận container",
        "5. Biên bản hiện trường và/hoặc Báo cáo giám định",
        "6. Tài liệu chi phí khắc phục tổn thất",
        "7. Đơn yêu cầu bồi thường",
        "8. Các tài liệu khác tuỳ theo từng trường hợp tổn thất"
      ]
    }
  ]
}]
