[{
    "title": "Personal Accident",
    "ariaExpanded": true,
    "content": "Personal accidents caused by travel during the insurance period, such as accidental death, permanent total disablement, etc.",
    "nextLevel": true,
    "nextLevelContent": [{
        "title": "Accidental Death",
        "content": "Claim Documents",
        "ariaExpanded": true,
        "text": [
          "1. Claim form",
          "2. Insurance certificate",
          "3. Copy of passport/ID & visa",
          "4. Police report",
          "5. Death certificate",
          "6. Post mortem report/ Autopsy report",
          "7. Confirmation of lawful right of inheritance",
          "8. Driver's license if incident was caused by a traffic accident"
        ]
      },
      {
        "title": "Permanent Total Disablement",
        "content": "Claim Documents",
        "ariaExpanded": false,
        "text": [
          "1. Claim form",
          "2. Insurance certificate",
          "3. Copy of passport/ID & visa",
          "4. Police report",
          "5. Medical report",
          "6. Certification by hospital/attending physician (details include nature of injury, extent & period of disability)",
          "7. Driver's license if incident was caused by a traffic accident."
        ]
      },
      {
        "title": "Death Due to Rescue People or Property",
        "content": "Claim Documents",
        "ariaExpanded": false,
        "text": [
          "1. Claim form",
          "2. Insurance certificate",
          "3. Copy of passport/ID & visa",
          "4. Police report",
          "5. Death certificate",
          "6. Post mortem report/ Autopsy report",
          "7. Confirmation of lawful right of inheritance",
          "8. Driver's license if incident was caused by a traffic accident"
        ]
      },
      {
        "title": "Disability Due to Rescue People or Property",
        "content": "Claim Documents",
        "ariaExpanded": false,
        "text": [
          "1. Claim form",
          "2. Insurance certificate",
          "3. Copy of passport/ID & visa",
          "4. Police report",
          "5. Medical report",
          "6. Certification by hospital/attending physician (details include nature of injury, extent & period of disability)",
          "7. Driver's license if the death caused by a traffic accident."
        ]
      },
      {
        "title": "Death Due to Sudden Illness",
        "content": "Claim Documents",
        "ariaExpanded": false,
        "text": [
          "1. Claim form",
          "2. Insurance certificate",
          "3. Copy of passport/ID & visa",
          "4. Notarized hospital exit documents or the notice of death's reason of the Insured issued by the hospital",
          "5. Death certificate",
          "6. Post mortem report/ Autopsy report",
          "7. Copies of the medical history of the Insured notarized by the hospitals that provided emergency service and treatment to the Insured",
          "8. Confirmation of lawful right of inheritance"
        ]
      },
      {
        "title": "In Case of Terrorism",
        "content": "Claim Documents",
        "ariaExpanded": false,
        "text": [
          "1. Claim form",
          "2. Insurance certificate",
          "3. Copy of passport/ID & visa",
          "4. Police or relevant authority report",
          "5. Death certificate (If the insured dies because of terrorism)",
          "6. Certification by hospital/attending physician (details include nature of injury, extent & period of disability)",
          "7. Confirmation lawful right of inheritance (If the insurd die because of terrorism)"
        ]
      },
      {
        "title": "Personal Liability",
        "content": "Claim Documents",
        "ariaExpanded": false,
        "text": [
          "1. Claim form",
          "2. Insurance certificate",
          "3. Copy of passport/ID & visa",
          "4. Declaration to insurer",
          "5. Letter from the concerned 3rd party",
          "6. The third party's death certificate or Certification by hospital",
          "7. Bill of legal cost"
        ]
      },
      {
        "title": "Children Education Security",
        "content": "Claim Documents",
        "ariaExpanded": false,
        "text": [
          "1. Claim form",
          "2. Insurance certificate",
          "3. Copy of passport/ID & visa",
          "4. Confirmation letter about the relationship between the insured who died and the children"
        ]
      }
    ]
  },
  {
    "title": "Medical Expenses",
    "ariaExpanded": false,
    "content": "Medical expenses during the travel insurance's period, such as out-patient treatment, in-patient treatment…",
    "nextLevel": true,
    "nextLevelContent": [{
        "title": "Out-Patient Treatment",
        "content": "Claim Documents",
        "ariaExpanded": true,
        "text": [
          "1. Claim form",
          "2. Insurance certificate",
          "3. Copy of passport/ID & visa",
          "4. Police report if the insured needs to be treated because of an accident",
          "5. Medical report/ Report relevant to treatments",
          "6. Bills & detail of bills",
          "7. Prescription"
        ]
      },
      {
        "title": "Medical Aids that are Necessary as Part of Treatment for Broken Limbs or Injuries (e.g. Plaster Casts, Bandages) and Walking Aids Prescribed by a Physician",
        "content": "Claim Documents",
        "ariaExpanded": false,
        "text": [
          "1. Claim form",
          "2. Insurance certificate",
          "3. Copy of passport/ID & visa",
          "4. Police report if the insured needs to be treated because of an accident",
          "5. Medical report/ Report relevant to treatments",
          "6. Bills & detail of bills",
          "7. The result of relevant documents (X rays/ CT scans/ MRIs)",
          "8. Proof of Indication"
        ]
      },
      {
        "title": "Medical Expenses Incurred Overseas Due to Sickness",
        "content": "Claim Documents",
        "ariaExpanded": false,
        "text": [
          "1. Claim form",
          "2. Insurance certificate",
          "3. Copy of passport/ID & visa",
          "4. Police report if the insured needs to be treated because of an accident",
          "5. Medical report/ Report relevant to treatments",
          "6. Bills & detail of bills",
          "7. Relevant documents (test, ultrasound…)",
          "8. Prescription"
        ]
      },
      {
        "title": "Follow up Treatment in Vietnam is also Included",
        "content": "Claim Documents",
        "ariaExpanded": false,
        "text": [
          "1. Claim form",
          "2. Insurance certificate",
          "3. Copy of passport/ID & visa",
          "4. Police report if the insured needs to be treated because of an accident",
          "5. Medical report/ Report relevant to treatments",
          "6. Bills & detail of bills",
          "7. Hospital admission & discharge in Vietnam",
          "8. Invoice & details of treating in Vietnam"
        ]
      },
      {
        "title": "Radiotherapy, Heat Therapy or Phototherapy and Other Such  Treatment Prescribed by a Physician",
        "content": "Claim Documents",
        "ariaExpanded": false,
        "text": [
          "1. Claim form",
          "2. Insurance certificate",
          "3. Copy of passport/ID & visa",
          "4. Police report if the insured needs to be treated because of an accident",
          "5. Medical report/ Report relevant to treatments",
          "6. Bills & detail of bills",
          "7. Proof of Indication"
        ]
      },
      {
        "title": "Dental Treatment, but Only Including Sedative Treatment for Acute Tooth Pain",
        "content": "Claim Documents",
        "ariaExpanded": false,
        "text": [
          "1. Claim form",
          "2. Insurance certificate",
          "3. Copy of passport/ID & visa",
          "4. Police report if the insured needs to be treated because of an accident",
          "5. Medical report/ Report relevant to treatments",
          "6. Bills & detail of bills",
          "7. Dental record"
        ]
      },
      {
        "title": "In-patient Treatment",
        "content": "Claim Documents",
        "ariaExpanded": false,
        "text": [
          "1. Claim form",
          "2. Insurance certificate",
          "3. Copy of passport/ID & visa",
          "4. Police report if the insured needs to be treated because of an accident",
          "5. Medical report/ Report relevant to treatments",
          "6. Bills & detail of bills",
          "7. Hospital admission & discharge"
        ]
      },
      {
        "title": "The Costs Related to Surgery",
        "content": "Claim Documents",
        "ariaExpanded": false,
        "text": [
          "1. Claim form",
          "2. Insurance certificate",
          "3. Copy of passport/ID & visa",
          "4. Police report if the insured needs to be treated because of an accident",
          "5. Medical report/ Report relevant to treatments",
          "6. Bills & detail of bills",
          "7. The indication/ Certificate of surgery"
        ]
      },
      {
        "title": "Overseas Hospital Confinement Support",
        "content": "Claim Documents",
        "ariaExpanded": false,
        "text": [
          "1. Claim form",
          "2. Insurance certificate",
          "3. Copy of passport/ID & visa",
          "4. Certificate of in-patient treatment"
        ]
      },
      {
        "title": "Replacement Expenses",
        "content": "Claim Documents",
        "ariaExpanded": false,
        "text": [
          "1. Claim form",
          "2. Insurance certificate",
          "3. Copy of passport/ID & visa",
          "4. Police report if the insured needs to be treated because of an accident",
          "5. Certification by hospital (the insured has injury or serious disease)",
          "6. Confirmation of replacement staff by the insured's company",
          "7. Return flights tickets of the replacement staff and their invoice",
          "8. Transportation fare of the replacement staff"
        ]
      }
    ]
  },

  {
    "title": "Inconvenient Insurance For Travel Abroad",
    "ariaExpanded": false,
    "content": "Inconvenient insurance for travel aboard, such as baggage delay, filght delay, flight cancellation…",
    "nextLevel": true,
    "nextLevelContent": [{
        "title": "Baggage Delay",
        "content": "Claim Documents",
        "ariaExpanded": true,
        "text": [
          "1. Claim form",
          "2. Insurance certificate",
          "3. Copy of passport/ID & visa",
          "4. Written confirmation by the carrier/ airline",
          "5. Irregularity report of baggage",
          "6. Bill of deposit of hotel/transportation "
        ]
      },
      {
        "title": "Flight Delay",
        "content": "Claim Documents",
        "ariaExpanded": false,
        "text": [
          "1. Claim form",
          "2. Insurance certificate",
          "3. Copy of passport/ID & visa",
          "4. Written confirmation by the carrier/ airline (including delay reasons, date, time...) "
        ]
      },
      {
        "title": "Curtailment of Trip or Cancellation Charges",
        "content": "Claim Documents",
        "ariaExpanded": false,
        "text": [
          "1. Claim form",
          "2. Insurance certificate",
          "3. Copy of passport/ID & visa",
          "4. Bill of deposit or invoice of increases costs (hotel, flight ticket...)",
          "5. Original itinerary certified by relevant authority ",
          "6. The other documents required by Cathay (death certificate or medical report, court summons, quarantine decision, health report certified by doctor... )"
        ]
      },
      {
        "title": "Loss of Travel Documents",
        "content": "Claim Documents",
        "ariaExpanded": false,
        "text": [
          "1. Claim form",
          "2. Insurance certificate",
          "3. Copy of passport/ID & visa",
          "4. Police report",
          "5. Invoice of issued documents (transport fee, passport extension, extension accommodation...)",
          "6. New travel documents (Visa, passport)"
        ]
      },
      {
        "title": "Loss and Damage of Baggage",
        "content": "Claim Documents",
        "ariaExpanded": false,
        "text": [
          "1. Claim form",
          "2. Insurance certificate",
          "3. Copy of passport/ID & visa",
          "4. Police report or relevant authority report of carrier",
          "5. Original purchase receipt",
          "6. Repairing quotes & invoice of repair"
        ]
      },
      {
        "title": "Loss of Personal Cash",
        "content": "Claim Documents",
        "ariaExpanded": false,
        "text": [
          "1. Claim form",
          "2. Insurance certificate",
          "3. Copy of passport/ID & visa",
          "4. Police report or relevant authority report of carrier",
          "5. Withdrawal invoice",
          "6. Bill of exchange money"
        ]
      },
      {
        "title": "Aircraft Hijacking",
        "content": "Claim Documents",
        "ariaExpanded": false,
        "text": [
          "1. Claim form",
          "2. Insurance certificate",
          "3. Copy of passport/ID & visa",
          "4. Death certificate or medical report",
          "5. Invoice of increased costs (if any)",
          "6. Statement certified by competent authorities or proof of hijacking"
        ]
      },
      {
        "title": "Credit Card Protection",
        "content": "Claim Documents",
        "ariaExpanded": false,
        "text": [
          "1. Claim form",
          "2. Insurance certificate",
          "3. Copy of passport/ID & visa",
          "4. Police report",
          "5. Death certificate",
          "6. Credit card statement",
          "7. Medical report/ Report relevant to treatments"
        ]
      },
      {
        "title": "Travel Misconnection",
        "content": "Claim Documents",
        "ariaExpanded": false,
        "text": [
          "1. Claim form",
          "2. Insurance certificate",
          "3. Copy of passport/ID & visa",
          "4. Travel itinerary",
          "5. Written confirmation by the  airline"
        ]
      }
    ]
  },
  {
    "title": "Personal Liability Abroad",
    "ariaExpanded": false,
    "content": "Cathay will pay the insured person for legal liability whilst any result of death or injury or loss of or damage to property to any third party within the insurance period.",
    "nextLevel": true,
    "nextLevelContent": [{
      "title": "Personal Liability Abroad",
      "content": "Claim Documents",
      "ariaExpanded": true,
      "text": [
        "1. Claim form",
        "2. Insurance certificate",
        "3. Copy of passport/ID & visa",
        "4. Declaration to insurer",
        "5. Letter from the concerned 3rd party",
        "6. Confirmation of the third party's damage property",
        "7. Bill of legal cost"
      ]
    }]
  },
  {
    "title": "Emergency Assistance Abroad",
    "ariaExpanded": false,
    "content": "Emergency assistance abroad such as return of children, repatriation, burial...",
    "nextLevel": true,
    "nextLevelContent": [{
        "title": "Return of Children (Age below 14 or 18) to Vietnam",
        "content": "Claim Documents",
        "ariaExpanded": true,
        "text": [
          "If the Insured's insured Child(ren) (age below 14) are left unattended Overseas as a result of Injury, sickness,  hospitalization, or death of the Insured, Cathay will pay, up to the benefit amount specified in the Insurance  Certificate, the reasonable additional accommodation and economical class of traveling expenses for 1 adult who is Family Member of the Insured, depart from Vietnam to where the Insured is Hospitalized in order to bring back the dependent Chil(ren) to Vietnam.",
          "If the Insured person’s insured dependent children (aged below 18) are left unattended overseas as a result of serious Injury, illness, hospitalisation, or death of the Insured person, the Company will pay reasonable additional accommodation and economy class of travelling expenses for them to return to Vietnam. The maximum cost will not exceed the limit of the Plan."
        ]
      },
      {
        "title": "Repatriation of Mortal Remains",
        "content": "Claim Documents",
        "ariaExpanded": false,
        "text": [
          "In the event of death of the Insured person, and with the Company’s prior approval, its designated Assistance Company will assist with the necessary formalities and will be responsible for the transportation charges exclusively for repatriation of the mortal remains to the Vietnam up to a maximum cost not exceeding limit of the Plan."
        ]
      },
      {
        "title": "Family Member Visit",
        "content": "Claim Documents",
        "ariaExpanded": false,
        "text": [
          "1. Claim form",
          "2. Insurance certificate",
          "3. Copy of passport/ID & visa",
          "4. Flight ticket",
          "5. Flight ticket invoice",
          "6. Relationship proof",
          "7. The insured’s health proof"
        ]
      },
      {
        "title": "Emergency Evacuation",
        "content": "Claim Documents",
        "ariaExpanded": false,
        "text": [
          "The Insured or his/her representative, when contact to Cathay or the Authorized company by any means, will be required to identify the Insured's name, the Insurance contract’s number as well as the nature of the problem, location,contact person and information. After validation, Cathay or the Authorized Company will provide services and settle bills as required by the terms and conditions of the Insurance Contract."
        ]
      },
      {
        "title": "Repatriation",
        "content": "Claim Documents",
        "ariaExpanded": false,
        "text": [
          "1. Claim form",
          "2. Insurance certificate",
          "3. Copy of passport/ID & visa",
          "4. Doctor request/agreement and Cathay's agreement",
          "5. The insured's transportation ticket (unused)"
        ]
      }
    ]
  },
  {
    "title": "Additional Costs of Travel and Accommodation",
    "ariaExpanded": false,
    "content": "Additional costs of travel and accommodation (1 flight ticket for the companion to return with the insured. Along with the necessary and reasonable accommodation and travel expenses for the treatment of the insured and  the companion)",
    "nextLevel": true,
    "nextLevelContent": [{
        "title": "",
        "content": "Claim Documents",
        "ariaExpanded": true,
        "text": [
          "1. Claim form",
          "2. Insurance certificate",
          "3. Copy of passport/ID & visa",
          "4. Flight ticket and flight ticket invoice (in case of claiming for additional costs of travel)",
          "5. Invoice of accomodation cost, transportation... (in case of claiming for additional costs of accommodation)",
          "6. Relationship proof between the insured and companion"
        ]
      }
    ]
  }
]
